…
## Analysis and Results

Firstly, I’ll calculate the departure delay of the preceding flight from
the same airport using `lag()` function based on the same *origin*.

``` r
(lagged_delays <- flights %>% 
  arrange(origin, month, day, dep_time) %>%
  group_by(origin) %>%
  mutate(dep_delay_lag = lag(dep_delay)) %>%
  filter(!is.na(dep_delay),!is.na(dep_delay_lag))) ## remove rows including NA values
```

    ## # A tibble: 327,649 x 20
    ## # Groups:   origin [3]
    ##     year month   day dep_time sched_dep_time dep_delay arr_time sched_arr_time
    ##    <int> <int> <int>    <int>          <int>     <dbl>    <int>          <int>
    ##  1  2013     1     1      554            558        -4      740            728
    ##  2  2013     1     1      555            600        -5      913            854
    ##  3  2013     1     1      558            600        -2      923            937
    ##  4  2013     1     1      559            600        -1      854            902
    ##  5  2013     1     1      601            600         1      844            850
    ##  6  2013     1     1      606            610        -4      858            910
    ##  7  2013     1     1      607            607         0      858            915
    ##  8  2013     1     1      608            600         8      807            735
    ##  9  2013     1     1      615            615         0      833            842
    ## 10  2013     1     1      622            630        -8     1017           1014
    ## # ... with 327,639 more rows, and 12 more variables: arr_delay <dbl>,
    ## #   carrier <chr>, flight <int>, tailnum <chr>, origin <chr>, dest <chr>,
    ## #   air_time <dbl>, distance <dbl>, hour <dbl>, minute <dbl>, time_hour <dttm>,
    ## #   dep_delay_lag <dbl>
…
